# setting LC_ALL to "C"
# --> Including file '/home/hschrein/hackathon/Gaudi/GaudiExamples/options/FunctionalAlgorithms/ProduceConsume.py'
# <-- End of file '/home/hschrein/hackathon/Gaudi/GaudiExamples/options/FunctionalAlgorithms/ProduceConsume.py'
ApplicationMgr    SUCCESS
====================================================================================================================================
                                                   Welcome to ApplicationMgr (GaudiCoreSvc v28r0)
                                          running on hltperf-intel-e5-2630 on Wed Nov 16 17:55:50 2016
====================================================================================================================================
ApplicationMgr       INFO Application Manager Configured successfully
EventLoopMgr      WARNING Unable to locate service "EventSelector"
EventLoopMgr      WARNING No events will be processed from external input.
HistogramPersis...WARNING Histograms saving not required.
ApplicationMgr       INFO Application Manager Initialized successfully
ApplicationMgr       INFO Application Manager Started successfully
Gaudi::Examples...   INFO executing IntDataProducer
Gaudi::Examples...   INFO executing IntDataConsumer: 7
Gaudi::Examples...   INFO Converting: 7
Gaudi::Examples...   INFO executing FloatDataConsumer: 7
Gaudi::Examples...   INFO executing IntDataProducer
Gaudi::Examples...   INFO executing IntDataConsumer: 7
Gaudi::Examples...   INFO Converting: 7
Gaudi::Examples...   INFO executing FloatDataConsumer: 7
ApplicationMgr       INFO Application Manager Stopped successfully
EventLoopMgr         INFO Histograms converted successfully according to request.
ApplicationMgr       INFO Application Manager Finalized successfully
ApplicationMgr       INFO Application Manager Terminated successfully
